Amide Coupling,Acid,Amine,k
Ac13-N1,Ac13,N1,0.0324
Ac16-N1,Ac16,N1,0.7690
Ac4-N2,Ac4,N2,0.7521
Ac5-N2b,Ac5,N2,0.0766
Ac17-N2,Ac17,N2,0.4886
Ac4-N3,Ac4,N3,0.3328
Ac8-N3,Ac8,N3,4.8788
Ac12-N3,Ac12,N3,5.9721
Ac17-N3,Ac17,N3,0.6173
Ac6-N4,Ac6,N4,0.1145
Ac15-N5,Ac15,N5,0.6427
Ac17-N5,Ac17,N5,0.0335
Ac1-N6,Ac1,N6,1.5673
Ac5-N6,Ac5,N6,0.0271
Ac8-N6,Ac8,N6,7.8457
Ac9-N6,Ac9,N6,1.2320
Ac12-N6,Ac12,N6,4.8703
Ac17-N6,Ac17,N6,0.1390
Ac3-N7,Ac3,N7,6.7767
Ac4-N7,Ac4,N7,0.2922
Ac2-N8,Ac2,N8,6.0444
Ac19-N8,Ac19,N8,1.1503
Ac9-N9,Ac9,N9,0.0184
Ac21-N9,Ac21,N9,1.0712
Ac1-N10,Ac1,N10,0.5928
Ac11-N10,Ac11,N10,2.8829
Ac10-N11,Ac10,N11,4.8470
Ac20-N11,Ac20,N11,0.6730
Ac22-N11,Ac22,N11,0.7507
Ac1-N12,Ac1,N12,0.7926
Ac18-N12,Ac18,N12,3.5844
Ac2-N13,Ac2,N13,7.1229
Ac8-N13b,Ac8,N13,5.1781
Ac14-N13,Ac14,N13,10.0267
Ac7-N14,Ac7,N14,0.0341
Ac17-N14,Ac17,N14,0.0217
Ac22-N14,Ac22,N14,2.6537
Ac5-N15,Ac5,N15,0.0713
Ac6-N15,Ac6,N15,0.0634
Ac7-N15,Ac7,N15,0.8803
Ac15-N15,Ac15,N15,4.0469
Ac17-N15,Ac17,N15,1.1216
Ac13-N16,Ac13,N16,0.0148
Ac15-N16,Ac15,N16,2.2738